<svg width="735" height="148" viewBox="0 0 735 148" fill="none" xmlns="http://www.w3.org/2000/svg">
<path d="M132.27 55.9143L70.6549 1.36664C68.5979 -0.454679 65.5047 -0.456412 63.4477 1.36664L1.83229 55.9143C0.666891 56.9454 0 58.4279 0 59.9846V142.441C0 145.443 2.43391 147.877 5.4368 147.877H128.668C131.671 147.877 134.104 145.443 134.105 142.441V59.9846C134.104 58.4279 133.437 56.9456 132.27 55.9143ZM123.231 132.004C123.231 134.766 120.992 137.004 118.231 137.004H15.8736C13.1122 137.004 10.8736 134.766 10.8736 132.004V64.6844C10.8736 63.2527 11.4873 61.8897 12.5593 60.9406L63.7379 15.6324C65.63 13.9574 68.4744 13.9574 70.3665 15.6324L121.545 60.9406C122.617 61.8897 123.231 63.2527 123.231 64.6844V132.004Z" fill="#0A4AFC"/>
<path d="M100.769 90.3187C100.81 89.6282 100.841 88.9626 100.841 88.5464C100.841 78.2154 96.1689 68.6419 88.2914 62.2673C86.8407 61.0933 84.7131 61.3178 83.5391 62.7684C82.3652 64.2191 82.5896 66.3467 84.0403 67.5207C90.3488 72.6257 94.0826 80.2773 94.0826 88.5465C94.0826 88.547 94.0826 88.5475 94.0826 88.548C86.618 88.5483 80.5676 94.5988 80.5676 102.064C80.5676 109.529 86.6183 115.579 94.0833 115.579C101.548 115.579 107.599 109.529 107.599 102.064C107.599 97.0315 104.848 92.6454 100.769 90.3187ZM94.0834 108.821C90.3507 108.821 87.3255 105.796 87.3255 102.063C87.3255 98.3306 90.3506 95.3055 94.0834 95.3055C97.8163 95.3055 100.841 98.3306 100.841 102.063C100.841 105.796 97.8161 108.821 94.0834 108.821Z" fill="#000512"/>
<path d="M36.6479 85.0869C38.4678 85.4996 40.2778 84.3589 40.6904 82.5389C42.4947 74.5831 47.8374 67.9054 55.0379 64.3266C57.2833 68.6772 61.8186 71.6534 67.0523 71.6534C74.5172 71.6534 80.5679 65.6028 80.5679 58.1378C80.5679 50.6729 74.5172 44.6222 67.0523 44.6222C59.7779 44.6222 53.8492 50.3685 53.5509 57.5695C43.7842 61.8309 36.4829 70.5376 34.0999 81.0444C33.6872 82.8642 34.828 84.6741 36.6479 85.0869ZM67.0523 51.3801C70.785 51.3801 73.8102 54.4051 73.8102 58.138C73.8102 61.8708 70.785 64.8957 67.0523 64.8957C63.707 64.8957 60.9319 62.4654 60.3915 59.2744C60.3856 59.2389 60.3795 59.2034 60.3725 59.1681C60.3212 58.8322 60.2946 58.4883 60.2946 58.138C60.2944 54.4051 63.3196 51.3801 67.0523 51.3801Z" fill="#000512"/>
<path d="M76.0636 114.042C73.2019 115.055 70.1676 115.578 67.0509 115.578C61.0954 115.578 55.4527 113.646 50.8337 110.173C52.5305 107.914 53.5365 105.107 53.5365 102.064C53.5365 94.5987 47.4858 88.548 40.0209 88.548C32.556 88.548 26.5051 94.5985 26.5051 102.064C26.5051 109.529 32.5558 115.579 40.0208 115.579C41.926 115.579 43.7381 115.183 45.382 114.472C51.394 119.505 59.0018 122.336 67.0507 122.336C70.9374 122.336 74.7341 121.681 78.3182 120.412C80.0774 119.79 80.9988 117.859 80.3761 116.1C79.7535 114.34 77.8228 113.419 76.0636 114.042ZM33.263 102.064C33.263 98.3309 36.2881 95.3057 40.0209 95.3057C43.7538 95.3057 46.7786 98.3307 46.7786 102.064C46.7786 105.796 43.7536 108.822 40.0208 108.822C36.2879 108.822 33.263 105.796 33.263 102.064Z" fill="#000512"/>
<path d="M255.799 123.747C256.374 125.249 256.661 126.636 256.661 127.907C256.661 130.911 255.685 133.396 253.732 135.36C251.779 137.209 249.539 138.133 247.012 138.133C244.944 138.133 243.048 137.498 241.325 136.227C239.717 134.956 238.453 133.222 237.534 131.027L228.574 110.053H177.225L168.265 131.2C167.461 133.396 166.197 135.129 164.474 136.4C162.866 137.556 161.085 138.133 159.133 138.133C156.146 138.133 153.848 137.324 152.24 135.707C150.747 134.089 150 131.893 150 129.12C150 128.08 150.172 126.982 150.517 125.827L193.423 22.1733C194.342 19.8622 195.72 18.0711 197.558 16.8C199.396 15.5289 201.464 15.0089 203.761 15.24C205.829 15.24 207.724 15.8755 209.448 17.1467C211.286 18.3022 212.607 19.9778 213.411 22.1733L255.799 123.747ZM220.131 90.12L202.727 49.56L185.669 90.12H220.131Z" fill="#000512"/>
<path d="M375.844 42.8C387.217 42.8 395.086 46.3244 399.451 53.3733C403.816 60.3067 405.999 69.9556 405.999 82.32V126.693C405.999 129.698 405.022 132.24 403.07 134.32C401.117 136.284 398.647 137.267 395.66 137.267C392.673 137.267 390.204 136.284 388.251 134.32C386.298 132.24 385.321 129.698 385.321 126.693V82.32C385.321 75.9644 384.058 70.9956 381.531 67.4133C379.118 63.7156 374.81 61.8667 368.607 61.8667C362.174 61.8667 357.12 63.8311 353.444 67.76C349.883 71.5733 348.102 76.4267 348.102 82.32V126.693C348.102 129.698 347.126 132.24 345.173 134.32C343.22 136.284 340.75 137.267 337.763 137.267C334.777 137.267 332.307 136.284 330.354 134.32C328.401 132.24 327.425 129.698 327.425 126.693V82.32C327.425 75.9644 326.161 70.9956 323.634 67.4133C321.221 63.7156 316.914 61.8667 310.71 61.8667C304.277 61.8667 299.223 63.8311 295.547 67.76C291.986 71.5733 290.205 76.4267 290.205 82.32V126.693C290.205 129.698 289.229 132.24 287.276 134.32C285.323 136.284 282.853 137.267 279.867 137.267C276.88 137.267 274.41 136.284 272.457 134.32C270.504 132.24 269.528 129.698 269.528 126.693V55.1067C269.528 52.1022 270.504 49.6178 272.457 47.6533C274.41 45.5733 276.88 44.5333 279.867 44.5333C282.853 44.5333 285.323 45.5733 287.276 47.6533C289.229 49.6178 290.205 52.1022 290.205 55.1067V57.88C293.307 53.72 297.213 50.1956 301.922 47.3067C306.747 44.3022 312.089 42.8 317.947 42.8C332.422 42.8 341.669 49.1556 345.69 61.8667C348.332 57.0133 352.295 52.6222 357.579 48.6933C362.978 44.7644 369.067 42.8 375.844 42.8Z" fill="#000512"/>
<path d="M447.849 126.693C447.849 129.698 446.873 132.24 444.92 134.32C442.967 136.284 440.497 137.267 437.51 137.267C434.524 137.267 432.054 136.284 430.101 134.32C428.148 132.24 427.172 129.698 427.172 126.693V55.1067C427.172 52.1022 428.148 49.6178 430.101 47.6533C432.054 45.5733 434.524 44.5333 437.51 44.5333C440.497 44.5333 442.967 45.5733 444.92 47.6533C446.873 49.6178 447.849 52.1022 447.849 55.1067V126.693ZM437.338 33.2667C433.432 33.2667 430.675 32.6311 429.067 31.36C427.459 30.0889 426.655 27.8356 426.655 24.6V21.3067C426.655 18.0711 427.516 15.8178 429.239 14.5467C430.962 13.2756 433.719 12.64 437.51 12.64C441.531 12.64 444.345 13.2756 445.954 14.5467C447.562 15.8178 448.366 18.0711 448.366 21.3067V24.6C448.366 27.9511 447.504 30.2622 445.781 31.5333C444.173 32.6889 441.359 33.2667 437.338 33.2667Z" fill="#000512"/>
<path d="M545.779 119.067C547.961 121.378 549.053 123.978 549.053 126.867C549.053 129.756 547.904 132.182 545.606 134.147C543.424 136.111 541.069 137.093 538.542 137.093C535.555 137.093 533.028 135.938 530.96 133.627L499.944 100.693L491.501 108.493V126.693C491.501 129.698 490.524 132.24 488.571 134.32C486.618 136.284 484.149 137.267 481.162 137.267C478.175 137.267 475.705 136.284 473.752 134.32C471.8 132.24 470.823 129.698 470.823 126.693V19.5733C470.823 16.5689 471.8 14.0844 473.752 12.12C475.705 10.04 478.175 9 481.162 9C484.149 9 486.618 10.04 488.571 12.12C490.524 14.0844 491.501 16.5689 491.501 19.5733V83.7067L528.375 47.8267C530.558 45.6311 533.085 44.5333 535.957 44.5333C538.484 44.5333 540.724 45.6311 542.677 47.8267C544.745 49.9067 545.779 52.0444 545.779 54.24C545.779 57.0133 544.4 59.6133 541.643 62.04L515.624 86.1333L545.779 119.067Z" fill="#000512"/>
<path d="M651.901 90.9867C651.901 100.231 649.834 108.551 645.698 115.947C641.563 123.227 635.876 128.889 628.639 132.933C621.517 136.978 613.648 139 605.032 139C596.302 139 588.376 136.978 581.253 132.933C574.131 128.889 568.502 123.227 564.367 115.947C560.231 108.551 558.164 100.231 558.164 90.9867C558.164 81.7422 560.231 73.48 564.367 66.2C568.502 58.8044 574.131 53.0844 581.253 49.04C588.376 44.88 596.302 42.8 605.032 42.8C613.648 42.8 621.517 44.88 628.639 49.04C635.876 53.0844 641.563 58.8044 645.698 66.2C649.834 73.48 651.901 81.7422 651.901 90.9867ZM631.224 90.9867C631.224 85.3244 630.018 80.2978 627.605 75.9067C625.308 71.4 622.149 67.9333 618.128 65.5067C614.222 63.08 609.857 61.8667 605.032 61.8667C600.208 61.8667 595.785 63.08 591.764 65.5067C587.859 67.9333 584.7 71.4 582.287 75.9067C579.99 80.2978 578.841 85.3244 578.841 90.9867C578.841 96.6489 579.99 101.676 582.287 106.067C584.7 110.458 587.859 113.867 591.764 116.293C595.785 118.72 600.208 119.933 605.032 119.933C609.857 119.933 614.222 118.72 618.128 116.293C622.149 113.867 625.308 110.458 627.605 106.067C630.018 101.676 631.224 96.6489 631.224 90.9867Z" fill="#000512"/>
<path d="M663.835 122.88C662.801 121.493 662.284 119.76 662.284 117.68C662.284 114.676 663.778 112.133 666.764 110.053C668.373 109.013 670.038 108.493 671.762 108.493C674.174 108.493 676.471 109.591 678.654 111.787C682.1 115.369 685.661 118.027 689.337 119.76C693.128 121.493 697.666 122.36 702.95 122.36C711.91 122.013 716.39 118.604 716.39 112.133C716.39 108.782 714.839 106.24 711.738 104.507C708.751 102.773 704.041 101.04 697.608 99.3067C690.946 97.4578 685.489 95.6089 681.239 93.76C677.103 91.9111 673.485 89.1378 670.383 85.44C667.396 81.6267 665.903 76.5422 665.903 70.1867C665.903 64.64 667.454 59.8444 670.555 55.8C673.772 51.64 677.907 48.4622 682.962 46.2667C688.131 43.9556 693.588 42.8 699.331 42.8C705.19 42.8 711.049 43.8978 716.907 46.0933C722.766 48.2889 727.361 51.5244 730.692 55.8C732.186 57.6489 732.932 59.7289 732.932 62.04C732.932 64.6978 731.841 66.8933 729.658 68.6267C728.05 69.8978 726.212 70.5333 724.144 70.5333C721.617 70.5333 719.549 69.7244 717.941 68.1067C715.873 65.5644 713.174 63.5422 709.842 62.04C706.626 60.5378 702.95 59.7867 698.814 59.7867C690.084 59.7867 685.719 62.9644 685.719 69.32C685.719 71.8622 686.523 73.9422 688.131 75.56C689.739 77.0622 691.75 78.2756 694.162 79.2C696.689 80.0089 700.193 81.0489 704.673 82.32C710.876 84.0533 716.046 85.8444 720.181 87.6933C724.317 89.5422 727.82 92.3733 730.692 96.1867C733.564 100 735 105.027 735 111.267C735 116.929 733.334 121.898 730.003 126.173C726.672 130.333 722.364 133.511 717.08 135.707C711.91 137.902 706.569 139 701.055 139C693.473 139 686.408 137.729 679.86 135.187C673.312 132.644 667.971 128.542 663.835 122.88Z" fill="#000512"/>
</svg>
